Epistémologie et Esprit Critique (Introduction to Research Design) – RCTs and Validity
…
How to analyze RCTs

Analyzing RCTs is very easy

Step 1: Check that key variables are balanced between control and treatment group

(this is something we’d expect from randomization, but with small samples you might get unlucky)

Step 2: Find difference in average outcome in treatment and control groups

Example RCT

imaginary_rct 

# A tibble: 800 × 6
   person treatment   age sex    recovery_time male_num
    <int> <chr>     <dbl> <chr>          <dbl>    <dbl>
 1      1 Treatment    23 Female         3.94         0
 2      2 Treatment    38 Male           4.84         1
 3      3 Treatment    46 Female        -2.07         0
 4      4 Treatment    12 Female         5.35         0
 5      5 Treatment    39 Male           3.04         1
 6      6 Treatment    40 Male           2.46         1
 7      7 Treatment    29 Female         6.32         0
 8      8 Treatment    30 Male           7.44         1
 9      9 Treatment    29 Female        -0.442        0
10     10 Treatment    26 Female         6.03         0
# ℹ 790 more rows
…
